code/cpu_wavedata.vcd
$date
	Sun Jun 21 23:35:47 2020
$end
$version
	Icarus Verilog
$end
$timescale
	100ps
$end
$scope module cpu_tb $end
$var wire 1 ! BUSYWAIT $end
$var wire 8 " WRITEDATA [7:0] $end
$var wire 1 # WRITE $end
$var wire 8 $ READDATA [7:0] $end
$var wire 1 % READ $end
$var wire 32 & PC [31:0] $end
$var wire 32 ' MEMWRITEDATA [31:0] $end
$var wire 1 ( MEMWRITE $end
$var wire 32 ) MEMREADDATA [31:0] $end
$var wire 1 * MEMREAD $end
$var wire 1 + MEMBUSY $end
$var wire 6 , MEMADDRESS [5:0] $end
$var wire 1 - INS_READ $end
$var wire 1 . INS_MEMBUSY $end
$var wire 1 / INS_BUSYWAIT $end
$var wire 128 0 INS_BLOCK [127:0] $end
$var wire 6 1 INS_ADDRESS [5:0] $end
$var wire 32 2 INSTRUCTION [31:0] $end
$var wire 1 3 DATA_BUSYWAIT $end
$var wire 8 4 ADDRESS [7:0] $end
$var reg 1 5 CLK $end
$var reg 1 6 RESET $end
$scope module MYCACHE $end
$var wire 1 5 CLK $end
$var wire 1 6 RESET $end
$var wire 32 7 cache_data [31:0] $end
$var wire 3 8 cache_tag [2:0] $end
$var wire 1 9 valid_bit $end
$var wire 3 : tag [2:0] $end
$var wire 2 ; offset [1:0] $end
$var wire 1 < is_tag_correct $end
$var wire 3 = index [2:0] $end
$var wire 1 > hit $end
$var wire 1 ? dirty_bit $end
$var wire 8 @ WRITEDATA [7:0] $end
$var wire 1 # WRITE $end
$var wire 1 % READ $end
$var wire 32 A MEMREADDATA [31:0] $end
$var wire 1 + MEMBUSY $end
$var wire 8 B ADDRESS [7:0] $end
$var reg 1 3 BUSYWAIT $end
$var reg 8 C DIRTY [0:7] $end
$var reg 6 D MEMADDRESS [5:0] $end
$var reg 1 * MEMREAD $end
$var reg 1 ( MEMWRITE $end
$var reg 32 E MEMWRITEDATA [31:0] $end
$var reg 8 F READDATA [7:0] $end
$var reg 8 G VALID [0:7] $end
$var reg 2 H next_state [1:0] $end
$var reg 2 I state [1:0] $end
$var integer 32 J i [31:0] $end
$upscope $end
$scope module MYCPU $end
$var wire 8 K ALURESULT [7:0] $end
$var wire 1 L BNE $end
$var wire 1 ! BUSYWAIT $end
$var wire 1 5 CLK $end
$var wire 8 M DATAIN [7:0] $end
$var wire 8 N DATAOUT [7:0] $end
$var wire 1 O ISBEQ $end
$var wire 1 P MUX3SELECT $end
$var wire 32 Q PC [31:0] $end
$var wire 1 % READ $end
$var wire 1 6 RESET $end
$var wire 1 # WRITE $end
$var wire 1 R ZERO $end
$var wire 1 S WRITEENABLE $end
$var wire 32 T UPDATEDPC [31:0] $end
$var wire 8 U TWOSCOMPLEMENT [7:0] $end
$var wire 3 V SOURCE2 [2:0] $end
$var wire 3 W SOURCE1 [2:0] $end
$var wire 8 X REVERSEDRESULT [7:0] $end
$var wire 8 Y REVERSEDOUT1 [7:0] $end
$var wire 8 Z RESULT [7:0] $end
$var wire 1 [ REGRESET $end
$var wire 1 \ PCRESET $end
$var wire 32 ] PCOUT [31:0] $end
$var wire 32 ^ PCIN [31:0] $end
$var wire 8 _ OUT2 [7:0] $end
$var wire 8 ` OUT1 [7:0] $end
$var wire 8 a MUX7OUT [7:0] $end
$var wire 8 b MUX5OUT [7:0] $end
$var wire 8 c MUX4OUT [7:0] $end
$var wire 8 d MUX2OUT [7:0] $end
$var wire 8 e MUX1OUT [7:0] $end
$var wire 1 f MEMWRITE $end
$var wire 1 g MEMREAD $end
$var wire 8 h JUMPVALUE [7:0] $end
$var wire 32 i JUMPPC [31:0] $end
$var wire 1 j ISSUB $end
$var wire 1 k ISSHIFTLEFT $end
$var wire 1 l ISMEM $end
$var wire 1 m ISJUMP $end
$var wire 1 n ISIMMEDIATE $end
$var wire 1 o ISBRANCH $end
$var wire 1 p ISBNE $end
$var wire 32 q INSTRUCTION [31:0] $end
$var wire 8 r IMMEDIATEVALUE [7:0] $end
$var wire 32 s EXTENDEDVALUE [31:0] $end
$var wire 3 t DESTINATION [2:0] $end
$var wire 3 u ALUOP [2:0] $end
$scope module ALU $end
$var wire 8 v and_value [7:0] $end
$var wire 8 w forward_value [7:0] $end
$var wire 8 x or_value [7:0] $end
$var wire 8 y reserved [7:0] $end
$var wire 8 z rotated_value [7:0] $end
$var wire 8 { shifted_value [7:0] $end
$var wire 8 | add_value [7:0] $end
$var wire 1 R ZERO $end
$var wire 8 } SHIFTEDVALUE [7:0] $end
$var wire 3 ~ SELECT [2:0] $end
$var wire 8 !" ROTATEDVALUE [7:0] $end
$var wire 1 "" FILL $end
$var wire 8 #" DATA2 [7:0] $end
$var wire 8 $" DATA1 [7:0] $end
$var wire 4 %" AMOUNT [3:0] $end
$var reg 8 &" RESULT [7:0] $end
$scope module MUX6 $end
$var wire 1 '" IN1 $end
$var wire 1 (" IN2 $end
$var wire 1 )" SELECT $end
$var reg 1 "" OUT $end
$upscope $end
$scope module MYSHIFT $end
$var wire 4 *" AMOUNT [3:0] $end
$var wire 1 "" S $end
$var wire 8 +" state3 [7:0] $end
$var wire 8 ," state2 [7:0] $end
$var wire 8 -" state1 [7:0] $end
$var wire 8 ." OUTDATA [7:0] $end
$var wire 8 /" INDATA [7:0] $end
$scope module m1 $end
$var wire 8 0" IN1 [7:0] $end
$var wire 1 1" SELECT $end
$var wire 8 2" IN2 [7:0] $end
$var reg 8 3" OUT [7:0] $end
$upscope $end
$scope module m2 $end
$var wire 8 4" IN1 [7:0] $end
$var wire 8 5" IN2 [7:0] $end
$var wire 1 6" SELECT $end
$var reg 8 7" OUT [7:0] $end
$upscope $end
$scope module m3 $end
$var wire 8 8" IN1 [7:0] $end
$var wire 8 9" IN2 [7:0] $end
$var wire 1 :" SELECT $end
$var reg 8 ;" OUT [7:0] $end
$upscope $end
$scope module m4 $end
$var wire 8 <" IN1 [7:0] $end
$var wire 8 =" IN2 [7:0] $end
$var wire 1 >" SELECT $end
$var reg 8 ?" OUT [7:0] $end
$upscope $end
$upscope $end
$scope module ROTATERIGHT $end
$var wire 4 @" AMOUNT [3:0] $end
$var wire 8 A" state3 [7:0] $end
$var wire 8 B" state2 [7:0] $end
$var wire 8 C" state1 [7:0] $end
$var wire 8 D" OUTDATA [7:0] $end
$var wire 8 E" INDATA [7:0] $end
$scope module m6 $end
$var wire 8 F" IN1 [7:0] $end
$var wire 1 G" SELECT $end
$var wire 8 H" IN2 [7:0] $end
$var reg 8 I" OUT [7:0] $end
$upscope $end
$scope module m7 $end
$var wire 8 J" IN1 [7:0] $end
$var wire 8 K" IN2 [7:0] $end
$var wire 1 L" SELECT $end
$var reg 8 M" OUT [7:0] $end
$upscope $end
$scope module m8 $end
$var wire 8 N" IN1 [7:0] $end
$var wire 8 O" IN2 [7:0] $end
$var wire 1 P" SELECT $end
$var reg 8 Q" OUT [7:0] $end
$upscope $end
$scope module m9 $end
$var wire 8 R" IN2 [7:0] $end
$var wire 1 S" SELECT $end
$var wire 8 T" IN1 [7:0] $end
$var reg 8 U" OUT [7:0] $end
$upscope $end
$upscope $end
$upscope $end
$scope module DECODER $end
$var wire 1 6 RESET $end
$var wire 32 V" INPUTINSTRUCTION [31:0] $end
$var reg 3 W" ALUOP [2:0] $end
$var reg 8 X" DES [7:0] $end
$var reg 3 Y" DESTINATION [2:0] $end
$var reg 8 Z" IMMEDIATEVALUE [7:0] $end
$var reg 1 p ISBNE $end
$var reg 1 o ISBRANCH $end
$var reg 1 n ISIMMEDIATE $end
$var reg 1 m ISJUMP $end
$var reg 1 l ISMEM $end
$var reg 1 k ISSHIFTLEFT $end
$var reg 1 j ISSUB $end
$var reg 8 [" JUMPVALUE [7:0] $end
$var reg 1 g MEMREAD $end
$var reg 1 f MEMWRITE $end
$var reg 8 \" OPCODE [7:0] $end
$var reg 1 \ PCRESET $end
$var reg 1 [ REGRESET $end
$var reg 8 ]" S1 [7:0] $end
$var reg 8 ^" S2 [7:0] $end
$var reg 3 _" SOURCE1 [2:0] $end
$var reg 3 `" SOURCE2 [2:0] $end
$var reg 1 S WRITEENABLE $end
$upscope $end
$scope module JUMPADD $end
$var wire 32 a" DATA2 [31:0] $end
$var wire 32 b" DATA1 [31:0] $end
$var reg 32 c" RESULT [31:0] $end
$upscope $end
$scope module MUX1 $end
$var wire 1 j SELECT $end
$var wire 8 d" IN2 [7:0] $end
$var wire 8 e" IN1 [7:0] $end
$var reg 8 f" OUT [7:0] $end
$upscope $end
$scope module MUX2 $end
$var wire 8 g" IN1 [7:0] $end
$var wire 8 h" IN2 [7:0] $end
$var wire 1 n SELECT $end
$var reg 8 i" OUT [7:0] $end
$upscope $end
$scope module MUX3 $end
$var wire 32 j" IN1 [31:0] $end
$var wire 1 P SELECT $end
$var wire 32 k" IN2 [31:0] $end
$var reg 32 l" OUT [31:0] $end
$upscope $end
$scope module MUX4 $end
$var wire 1 k SELECT $end
$var wire 8 m" IN2 [7:0] $end
$var wire 8 n" IN1 [7:0] $end
$var reg 8 o" OUT [7:0] $end
$upscope $end
$scope module MUX5 $end
$var wire 8 p" IN2 [7:0] $end
$var wire 1 k SELECT $end
$var wire 8 q" IN1 [7:0] $end
$var reg 8 r" OUT [7:0] $end
$upscope $end
$scope module MUX6 $end
$var wire 8 s" IN1 [7:0] $end
$var wire 8 t" IN2 [7:0] $end
$var wire 1 l SELECT $end
$var reg 8 u" OUT [7:0] $end
$upscope $end
$scope module PCADDER $end
$var wire 32 v" DATA2 [31:0] $end
$var wire 32 w" DATA1 [31:0] $end
$var reg 32 x" RESULT [31:0] $end
$upscope $end
$scope module PROGRAMCOUNTER $end
$var wire 1 ! BUSYWAIT $end
$var wire 1 5 CLK $end
$var wire 32 y" PCIN [31:0] $end
$var wire 1 \ RESET $end
$var reg 32 z" PCOUT [31:0] $end
$upscope $end
$scope module REGISTERFILE $end
$var wire 1 ! BUSYWAIT $end
$var wire 1 5 CLK $end
$var wire 8 {" IN [7:0] $end
$var wire 3 |" INADDRESS [2:0] $end
$var wire 8 }" OUT1 [7:0] $end
$var wire 3 ~" OUT1ADDRESS [2:0] $end
$var wire 8 !# OUT2 [7:0] $end
$var wire 3 "# OUT2ADDRESS [2:0] $end
$var wire 1 [ RESET $end
$var wire 1 S WRITE $end
$upscope $end
$scope module REVERSE1 $end
$var wire 8 ## INDATA [7:0] $end
$var reg 8 $# OUTDATA [7:0] $end
$upscope $end
$scope module REVERSE2 $end
$var wire 8 %# INDATA [7:0] $end
$var reg 8 &# OUTDATA [7:0] $end
$upscope $end
$scope module TWOSCOMPLEMENTUNIT $end
$var wire 8 '# IN [7:0] $end
$var reg 8 (# OUT [7:0] $end
$upscope $end
$upscope $end
$scope module MYDMEM $end
$var wire 6 )# address [5:0] $end
$var wire 1 5 clock $end
$var wire 1 * read $end
$var wire 1 6 reset $end
$var wire 1 ( write $end
$var wire 32 *# writedata [31:0] $end
$var reg 1 + busywait $end
$var reg 1 +# readaccess $end
$var reg 32 ,# readdata [31:0] $end
$var reg 1 -# writeaccess $end
$var integer 32 .# i [31:0] $end
$upscope $end
$scope module MYICACHE $end
$var wire 1 5 CLK $end
$var wire 32 /# PC [31:0] $end
$var wire 1 6 RESET $end
$var wire 128 0# cache_data [127:0] $end
$var wire 3 1# cache_tag [2:0] $end
$var wire 1 2# valid_bit $end
$var wire 3 3# tag [2:0] $end
$var wire 4 4# offset [3:0] $end
$var wire 1 5# is_tag_correct $end
$var wire 3 6# index [2:0] $end
$var wire 1 7# hit $end
$var wire 128 8# MEMREADDATA [127:0] $end
$var wire 1 . MEMBUSY $end
$var reg 6 9# ADDRESS [5:0] $end
$var reg 1 / BUSYWAIT $end
$var reg 32 :# INSTRUCTION [31:0] $end
$var reg 1 - READ $end
$var reg 8 ;# VALID [7:0] $end
$var reg 2 <# next_state [1:0] $end
$var reg 2 =# state [1:0] $end
$var integer 32 ># i [31:0] $end
$upscope $end
$scope module MYINS_MEMORY $end
$var wire 6 ?# address [5:0] $end
$var wire 1 5 clock $end
$var wire 1 - read $end
$var reg 1 . busywait $end
$var reg 1 @# readaccess $end
$var reg 128 A# readdata [127:0] $end
$upscope $end
$upscope $end
$enddefinitions $end
#0
$dumpvars
bx A#
0@#
bx ?#
b1000 >#
b0 =#
b0 <#
b0 ;#
bx :#
bx 9#
bx 8#
x7#
bx 6#
x5#
bx 4#
bx 3#
x2#
bx 1#
bx 0#
bx /#
b100000000 .#
0-#
bx ,#
0+#
bx *#
bx )#
bx (#
bx '#
bx &#
bx %#
bx $#
bx ##
bx "#
bx !#
bx ~"
bx }"
bx |"
bx {"
bx z"
bx y"
bx x"
bx w"
b100 v"
bx u"
bx t"
bx s"
bx r"
bx q"
bx p"
bx o"
bx n"
bx m"
bx l"
bx k"
bx j"
bx i"
bx h"
bx g"
bx f"
bx e"
bx d"
bx c"
bx b"
bx00 a"
bx `"
bx _"
bx ^"
bx ]"
bx \"
bx ["
bx Z"
bx Y"
bx X"
bx W"
bx V"
bx U"
bx T"
xS"
bx R"
bx Q"
xP"
bx O"
bx N"
bx M"
xL"
bx K"
bx J"
bx I"
bx H"
xG"
bx F"
bx E"
bx D"
bx C"
bx B"
bx A"
bx @"
bx ?"
x>"
bx ="
bx <"
bx ;"
x:"
bx 9"
bx 8"
bx 7"
x6"
bx 5"
bx 4"
bx 3"
bx 2"
x1"
bx 0"
bx /"
bx ."
bx -"
bx ,"
bx +"
bx *"
x)"
x("
0'"
bx &"
bx %"
bx $"
bx #"
x""
bx !"
bx ~
bx }
bx |
bx {
bx z
bx y
bx x
bx w
bx v
bx u
bx t
bx00 s
bx r
bx q
xp
xo
xn
xm
xl
xk
xj
bx i
bx h
xg
xf
bx e
bx d
bx c
bx b
bx a
bx `
bx _
bx ^
bx ]
1\
1[
bx Z
bx Y
bx X
bx W
bx V
bx U
bx T
xS
xR
bx Q
xP
xO
bx N
bx M
xL
bx K
b1000 J
b0 I
b0 H
b0 G
bx F
bx E
bx D
b0 C
bx B
bx A
bx @
x?
x>
bx =
x<
bx ;
bx :
x9
bx 8
bx 7
16
15
bx 4
03
bx 2
bx 1
bx 0
0/
0.
0-
bx ,
0+
0*
bx )
0(
bx '
bx &
x%
bx $
x#
bx "
0!
$end
#10
0L
b0 a
b0 u"
b0 {"
0!
b1100 4#
b111 6#
b111 3#
b0 b
b0 r"
b0 t"
b0 X
b0 q"
b0 &#
b0 :
b0 =
b0 ;
0/
0[
0\
b1000 J
b1000 >#
1R
b0 4
b0 B
b0 K
b0 Z
b0 &"
b0 p"
b0 %#
b11111111111111111111111111111100 &
b11111111111111111111111111111100 Q
b11111111111111111111111111111100 /#
b11111111111111111111111111111100 ]
b11111111111111111111111111111100 w"
b11111111111111111111111111111100 z"
06
b0 y
#20
07#
0>
b0 ^
b0 l"
b0 y"
b0 $
b0 F
b0 M
b0 s"
b0 1#
02#
09
0?
b0 8
b0 7
b0 T
b0 b"
b0 k"
b0 x"
#29
1<
#30
05#
#40
05
#80
15
#90
0!
b0 4#
b0 6#
b0 3#
b1 <#
0/
b0 &
b0 Q
b0 /#
b0 ]
b0 w"
b0 z"
#100
b100 ^
b100 l"
b100 y"
15#
b100 T
b100 b"
b100 k"
b100 x"
#120
05
#160
1!
1@#
1.
1/
b0 1
b0 9#
b0 ?#
1-
b1 <#
b1 =#
15
#200
05
#240
15
#280
05
#320
15
#360
05
#400
15
#440
05
#480
15
#520
05
#560
15
#600
05
#640
15
bx00001111 0
bx00001111 8#
bx00001111 A#
#680
05
#720
15
#760
05
#800
15
#840
05
#880
15
#920
05
#960
15
#1000
05
#1040
15
bx0000000000001111 0
bx0000000000001111 8#
bx0000000000001111 A#
#1080
05
#1120
15
#1160
05
#1200
15
#1240
05
#1280
15
#1320
05
#1360
15
#1400
05
#1440
15
bx000000000000000000001111 0
bx000000000000000000001111 8#
bx000000000000000000001111 A#
#1480
05
#1520
15
#1560
05
#1600
15
#1640
05
#1680
15
#1720
05
#1760
15
#1800
05
#1840
15
bx00000000000000000000000000001111 0
bx00000000000000000000000000001111 8#
bx00000000000000000000000000001111 A#
#1880
05
#1920
15
#1960
05
#2000
15
#2040
05
#2080
15
#2120
05
#2160
15
#2200
05
#2240
15
bx0000010100000000000000000000000000001111 0
bx0000010100000000000000000000000000001111 8#
bx0000010100000000000000000000000000001111 A#
#2280
05
#2320
15
#2360
05
#2400
15
#2440
05
#2480
15
#2520
05
#2560
15
#2600
05
#2640
15
bx000000000000010100000000000000000000000000001111 0
bx000000000000010100000000000000000000000000001111 8#
bx000000000000010100000000000000000000000000001111 A#
#2680
05
#2720
15
#2760
05
#2800
15
#2840
05
#2880
15
#2920
05
#2960
15
#3000
05
#3040
15
bx00000001000000000000010100000000000000000000000000001111 0
bx00000001000000000000010100000000000000000000000000001111 8#
bx00000001000000000000010100000000000000000000000000001111 A#
#3080
05
#3120
15
#3160
05
#3200
15
#3240
05
#3280
15
#3320
05
#3360
15
#3400
05
#3440
15
bx0000000000000001000000000000010100000000000000000000000000001111 0
bx0000000000000001000000000000010100000000000000000000000000001111 8#
bx0000000000000001000000000000010100000000000000000000000000001111 A#
#3480
05
#3520
15
#3560
05
#3600
15
#3640
05
#3680
15
#3720
05
#3760
15
#3800
05
#3840
15
bx000000010000000000000001000000000000010100000000000000000000000000001111 0
bx000000010000000000000001000000000000010100000000000000000000000000001111 8#
bx000000010000000000000001000000000000010100000000000000000000000000001111 A#
#3880
05
#3920
15
#3960
05
#4000
15
#4040
05
#4080
15
#4120
05
#4160
15
#4200
05
#4240
15
bx00000010000000010000000000000001000000000000010100000000000000000000000000001111 0
bx00000010000000010000000000000001000000000000010100000000000000000000000000001111 8#
bx00000010000000010000000000000001000000000000010100000000000000000000000000001111 A#
#4280
05
#4320
15
#4360
05
#4400
15
#4440
05
#4480
15
#4520
05
#4560
15
#4600
05
#4640
15
bx0000001000000010000000010000000000000001000000000000010100000000000000000000000000001111 0
bx0000001000000010000000010000000000000001000000000000010100000000000000000000000000001111 8#
bx0000001000000010000000010000000000000001000000000000010100000000000000000000000000001111 A#
#4680
05
#4720
15
#4760
05
#4800
15
#4840
05
#4880
15
#4920
05
#4960
15
#5000
05
#5040
15
bx000000100000001000000010000000010000000000000001000000000000010100000000000000000000000000001111 0
bx000000100000001000000010000000010000000000000001000000000000010100000000000000000000000000001111 8#
bx000000100000001000000010000000010000000000000001000000000000010100000000000000000000000000001111 A#
#5080
05
#5120
15
#5160
05
#5200
15
#5240
05
#5280
15
#5320
05
#5360
15
#5400
05
#5440
15
bx00000010000000100000001000000010000000010000000000000001000000000000010100000000000000000000000000001111 0
bx00000010000000100000001000000010000000010000000000000001000000000000010100000000000000000000000000001111 8#
bx00000010000000100000001000000010000000010000000000000001000000000000010100000000000000000000000000001111 A#
#5480
05
#5520
15
#5560
05
#5600
15
#5640
05
#5680
15
#5720
05
#5760
15
#5800
05
#5840
15
bx0000000000000010000000100000001000000010000000010000000000000001000000000000010100000000000000000000000000001111 0
bx0000000000000010000000100000001000000010000000010000000000000001000000000000010100000000000000000000000000001111 8#
bx0000000000000010000000100000001000000010000000010000000000000001000000000000010100000000000000000000000000001111 A#
#5880
05
#5920
15
#5960
05
#6000
15
#6040
05
#6080
15
#6120
05
#6160
15
#6200
05
#6240
15
bx000000010000000000000010000000100000001000000010000000010000000000000001000000000000010100000000000000000000000000001111 0
bx000000010000000000000010000000100000001000000010000000010000000000000001000000000000010100000000000000000000000000001111 8#
bx000000010000000000000010000000100000001000000010000000010000000000000001000000000000010100000000000000000000000000001111 A#
#6280
05
#6320
15
#6360
05
#6400
15
#6440
05
#6480
15
#6520
05
#6560
15
#6600
05
#6640
0-
b10 =#
b0 <#
15
0@#
0.
b111000000010000000000000010000000100000001000000010000000010000000000000001000000000000010100000000000000000000000000001111 0
b111000000010000000000000010000000100000001000000010000000010000000000000001000000000000010100000000000000000000000000001111 8#
b111000000010000000000000010000000100000001000000010000000010000000000000001000000000000010100000000000000000000000000001111 A#
#6650
b1 ;#
#6660
17#
12#
b111000000010000000000000010000000100000001000000010000000010000000000000001000000000000010100000000000000000000000000001111 0#
#6670
0#
0f
0%
0g
b0 s
b0 a"
b0 h
b0 ["
b1111 r
b1111 Z"
b1111 g"
b111 V
b111 `"
b111 "#
b0 W
b0 _"
b0 ~"
b0 t
b0 Y"
b0 |"
b0 \"
b0 X"
b0 ]"
b1111 ^"
b1111 2
b1111 q
b1111 V"
b1111 :#
#6680
0P
11"
16"
1:"
1>"
1G"
1L"
1P"
1S"
b1111 %"
b1111 *"
b1111 @"
bx X
bx q"
bx &#
bx :
bx =
bx ;
bx a
bx u"
bx {"
bx b
bx r"
bx t"
0O
b1111 d
b1111 #"
b1111 i"
0)"
xR
bx 4
bx B
bx K
bx Z
bx &"
bx p"
bx %#
0l
0k
0p
0o
0m
1S
0j
1n
b0 u
b0 ~
b0 W"
05
#6689
x<
#6690
b0 A"
b0 Q"
b0 R"
b0 N"
b0 B"
b0 M"
b0 O"
b0 J"
b0 ,"
b0 7"
b0 9"
b0 +"
b0 ;"
b0 ="
b0 }
b0 ."
b0 ?"
x>
b1111 a
b1111 u"
b1111 {"
b0 C"
b0 I"
b0 K"
b0 -"
b0 3"
b0 5"
b0 4"
b0 8"
b0 <"
0""
b1111 b
b1111 r"
b1111 t"
b11110000 X
b11110000 q"
b11110000 &#
b0 :
b11 =
b11 ;
b0 F"
b0 0"
0("
b0 !"
b0 D"
b0 U"
0R
b1111 4
b1111 B
b1111 K
b1111 Z
b1111 &"
b1111 p"
b1111 %#
b0 e
b0 f"
b0 h"
b0 c
b0 $"
b0 /"
b0 2"
b0 E"
b0 H"
b0 T"
b0 o"
b0 Y
b0 n"
b0 $#
bx1111 x
b0xxxx v
x9
x?
bx 8
bx 7
b1111 w
b100 i
b100 c"
b100 j"
b0 _
b0 d"
b0 !#
b0 '#
b0 "
b0 @
b0 N
b0 `
b0 m"
b0 }"
b0 ##
#6700
0>
b0 {
09
0?
b0 8
b0 7
b1111 x
b0 v
b0 z
b0 U
b0 e"
b0 (#
#6709
1<
#6710
b1111 |
#6720
0!
b0 =#
0/
15
#6730
1!
b100 4#
1/
b100 &
b100 Q
b100 /#
b100 ]
b100 w"
b100 z"
#6740
06"
0>"
0L"
0S"
b101 %"
b101 *"
b101 @"
b101 d
b101 #"
b101 i"
b100 s
b100 a"
b1 h
b1 ["
b101 r
b101 Z"
b101 g"
b101 V
b101 `"
b101 "#
b1 t
b1 Y"
b1 |"
b1 X"
b101 ^"
b1000 ^
b1000 l"
b1000 y"
b10000000000000101 2
b10000000000000101 q
b10000000000000101 V"
b10000000000000101 :#
b1000 T
b1000 b"
b1000 k"
b1000 x"
#6750
b1111000 !"
b1111000 D"
b1111000 U"
b1111000 A"
b1111000 Q"
b1111000 R"
b1111000 N"
b10000111 B"
b10000111 M"
b10000111 O"
b11100001 J"
b111 ,"
b111 7"
b111 9"
b1 4"
b101 a
b101 u"
b101 {"
b10000111 C"
b10000111 I"
b10000111 K"
b111 -"
b111 3"
b111 5"
b101 b
b101 r"
b101 t"
b10100000 X
b10100000 q"
b10100000 &#
b1 =
b1 ;
b10000111 F"
b111 0"
b101 4
b101 B
b101 K
b101 Z
b101 &"
b101 p"
b101 %#
b1111 c
b1111 $"
b1111 /"
b1111 2"
b1111 E"
b1111 H"
b1111 T"
b1111 o"
b11110000 Y
b11110000 n"
b11110000 $#
b101 x
b101 w
b1111 "
b1111 @
b1111 N
b1111 `
b1111 m"
b1111 }"
b1111 ##
#6760
b1111000 z
b1111 x
b101 v
b1100 i
b1100 c"
b1100 j"
05
#6770
b10100 |
#6800
0!
0/
15
#6810
1!
b1000 4#
1/
b1000 &
b1000 Q
b1000 /#
b1000 ]
b1000 w"
b1000 z"
#6820
b111 }
b111 ."
b111 ?"
b10000111 !"
b10000111 D"
b10000111 U"
b111 +"
b111 ;"
b111 ="
b10000111 A"
b10000111 Q"
b10000111 R"
0:"
0P"
b1 %"
b1 *"
b1 @"
b1 d
b1 #"
b1 i"
b1000 s
b1000 a"
b10 h
b10 ["
b1 r
b1 Z"
b1 g"
b1 V
b1 `"
b1 "#
b10 W
b10 _"
b10 ~"
b10 t
b10 Y"
b10 |"
b10 \"
b10 X"
b10 ]"
b1 ^"
b1100 ^
b1100 l"
b1100 y"
b10000000100000001000000001 2
b10000000100000001000000001 q
b10000000100000001000000001 V"
b10000000100000001000000001 :#
b1100 T
b1100 b"
b1100 k"
b1100 x"
#6830
b1111 }
b1111 ."
b1111 ?"
b1111 !"
b1111 D"
b1111 U"
b1111 +"
b1111 ;"
b1111 ="
b1111 A"
b1111 Q"
b1111 R"
b11110000 N"
b1111 ,"
b1111 7"
b1111 9"
b11 4"
b1111 B"
b1111 M"
b1111 O"
b11000011 J"
b1111 -"
b1111 3"
b1111 5"
b1111 C"
b1111 I"
b1111 K"
01"
0G"
b10100 a
b10100 u"
b10100 {"
b0 %"
b0 *"
b0 @"
b10100 b
b10100 r"
b10100 t"
b101000 X
b101000 q"
b101000 &#
b101 =
b0 ;
b0 d
b0 #"
b0 i"
1)"
b10100 4
b10100 B
b10100 K
b10100 Z
b10100 &"
b10100 p"
b10100 %#
b111 {
b10000111 z
b1 v
b1 w
0n
b1 u
b1 ~
b1 W"
#6840
b0 }
b0 ."
b0 ?"
b0 !"
b0 D"
b0 U"
11"
1:"
1G"
1P"
b0 +"
b0 ;"
b0 ="
b0 A"
b0 Q"
b0 R"
b0 N"
b101 %"
b101 *"
b101 @"
b0 ,"
b0 7"
b0 9"
b0 4"
b0 B"
b0 M"
b0 O"
b0 J"
b101 d
b101 #"
b101 i"
b0 F"
b0 0"
b0 -"
b0 3"
b0 5"
b0 C"
b0 I"
b0 K"
b101 e
b101 f"
b101 h"
b0 c
b0 $"
b0 /"
b0 2"
b0 E"
b0 H"
b0 T"
b0 o"
b0 Y
b0 n"
b0 $#
b1111 {
b1111 z
b0 v
b0 w
b101 _
b101 d"
b101 !#
b101 '#
b0 "
b0 @
b0 N
b0 `
b0 m"
b0 }"
b0 ##
b10100 i
b10100 c"
b10100 j"
05
#6850
b0 {
b0 z
b101 w
b101 x
b11111011 U
b11111011 e"
b11111011 (#
#6860
b101 a
b101 u"
b101 {"
b101 b
b101 r"
b101 t"
b10100000 X
b10100000 q"
b10100000 &#
b1 =
b1 ;
b101 4
b101 B
b101 K
b101 Z
b101 &"
b101 p"
b101 %#
b101 |
#6880
0!
0/
15
#6890
1!
b1100 4#
1/
b1100 &
b1100 Q
b1100 /#
b1100 ]
b1100 w"
b1100 z"
#6900
b100 s
b100 a"
b1 h
b1 ["
b10 r
b10 Z"
b10 g"
b10 V
b10 `"
b10 "#
b0 W
b0 _"
b0 ~"
b1 t
b1 Y"
b1 |"
b111 \"
b1 X"
b0 ]"
b10 ^"
b10000 ^
b10000 l"
b10000 y"
b111000000010000000000000010 2
b111000000010000000000000010 q
b111000000010000000000000010 V"
b111000000010000000000000010 :#
b10000 T
b10000 b"
b10000 k"
b10000 x"
#6910
16"
0:"
1>"
1L"
0P"
1S"
b1011 %"
b1011 *"
b1011 @"
b11111011 d
b11111011 #"
b11111011 i"
b11111011 e
b11111011 f"
b11111011 h"
1o
0S
1j
#6920
b11100001 A"
b11100001 Q"
b11100001 R"
b11110 N"
b1 +"
b1 ;"
b1 ="
b11100001 B"
b11100001 M"
b11100001 O"
b11100001 J"
b1 ,"
b1 7"
b1 9"
b1 4"
b10000111 C"
b10000111 I"
b10000111 K"
b111 -"
b111 3"
b111 5"
b10000111 F"
b111 0"
b1111 !"
b1111 D"
b1111 U"
b1111 c
b1111 $"
b1111 /"
b1111 2"
b1111 E"
b1111 H"
b1111 T"
b1111 o"
b11110000 Y
b11110000 n"
b11110000 $#
b11111011 x
b11111011 w
b1111 "
b1111 @
b1111 N
b1111 `
b1111 m"
b1111 }"
b1111 ##
05
#6930
b11111111 x
b1011 v
b1111 z
#6940
b1010 a
b1010 u"
b1010 {"
b1010 b
b1010 r"
b1010 t"
b1010000 X
b1010000 q"
b1010000 &#
b10 =
b10 ;
b1010 4
b1010 B
b1010 K
b1010 Z
b1010 &"
b1010 p"
b1010 %#
b1010 |
#6960
0!
0/
15
#6970
0!
b0 4#
b1 6#
0/
b10000 &
b10000 Q
b10000 /#
b10000 ]
b10000 w"
b10000 z"
#6980
b1 <#
07#
bx00 s
bx00 a"
bx h
bx ["
bx r
bx Z"
bx g"
bx V
bx `"
bx "#
bx W
bx _"
bx ~"
bx t
bx Y"
bx |"
bx \"
bx X"
bx ]"
bx ^"
b10100 ^
b10100 l"
b10100 y"
bx 2
bx q
bx V"
bx :#
02#
bx 0#
b10100 T
b10100 b"
b10100 k"
b10100 x"
#7000
bx A"
bx Q"
bx R"
bx N"
b0xxxxx +"
b0xxxxx ;"
b0xxxxx ="
b0x 8"
bx B"
bx M"
bx O"
bx J"
b0xxxxx ,"
b0xxxxx 7"
b0xxxxx 9"
b0xxxxx 4"
bx C"
bx I"
bx K"
b0xxxxxxx -"
b0xxxxxxx 3"
b0xxxxxxx 5"
bx F"
b0xxxxxxx 0"
x("
bx !"
bx D"
bx U"
bx c
bx $"
bx /"
bx 2"
bx E"
bx H"
bx T"
bx o"
bx Y
bx n"
bx $#
bx _
bx d"
bx !#
bx '#
bx "
bx @
bx N
bx `
bx m"
bx }"
bx ##
bx i
bx c"
bx j"
05
#7010
b0xxxxxx 4"
bx +"
bx ;"
bx ="
b0xxxx 8"
bx -"
bx 3"
bx 5"
bx ,"
bx 7"
bx 9"
bx }
bx ."
bx ?"
x1"
x6"
x:"
x>"
xG"
xL"
xP"
xS"
bx %"
bx *"
bx @"
bx d
bx #"
bx i"
bx e
bx f"
bx h"
b11111x11 x
bx0xx v
bx z
bx U
bx e"
bx (#
